…
``` r
plot_iceout()
```

<img src="man/figures/README-deprecated-plot-1.png" width="100%" />

``` r
data(usgs_iceout)

usgs_iceout
#> # A tibble: 3,372 x 9
#>    state name   long_name   lon   lat  year   doy date       observer      
#>    <chr> <chr>  <chr>     <dbl> <dbl> <dbl> <dbl> <date>     <chr>         
#>  1 Maine Auburn Lake Aub… -70.2  44.1  2005   110 2005-04-20 Auburn Water …
#>  2 Maine Auburn Lake Aub… -70.2  44.1  2004   105 2004-04-14 Auburn Water …
#>  3 Maine Auburn Lake Aub… -70.2  44.1  2003   116 2003-04-26 Auburn Water …
#>  4 Maine Auburn Lake Aub… -70.2  44.1  2002    94 2002-04-04 Auburn Water …
#>  5 Maine Auburn Lake Aub… -70.2  44.1  2001   118 2001-04-28 Auburn Water …
#>  6 Maine Auburn Lake Aub… -70.2  44.1  2000    97 2000-04-06 Auburn Water …
#>  7 Maine Auburn Lake Aub… -70.2  44.1  1999    97 1999-04-07 Auburn Water …
#>  8 Maine Auburn Lake Aub… -70.2  44.1  1998    98 1998-04-08 Auburn Water …
#>  9 Maine Auburn Lake Aub… -70.2  44.1  1997   114 1997-04-24 Auburn Water …
#> 10 Maine Auburn Lake Aub… -70.2  44.1  1996   100 1996-04-09 Auburn Water …
#> # … with 3,362 more rows
```

``` r
data(me_iceout)

me_iceout
#> # A tibble: 1,131 x 3
#>    town         body_name            iceout_date
#>    <chr>        <chr>                <date>     
#>  1 Jackman      Big Wood Pond        2003-05-03 
#>  2 China        China Lake           2003-04-22 
#>  3 Winthrop     Cobbossee Lake       2003-04-22 
#>  4 Gray         Crystal Lake         2003-04-21 
#>  5 Jefferson    Damariscotta Lake    2003-04-16 
#>  6 Eagle Lake   Eagle Lake           2003-05-10 
#>  7 Danforth     East Grand Lake      2003-05-10 
#>  8 Ellsworth    Ellsworth area lakes 2003-04-28 
#>  9 Embden       Embden Pond          2003-04-30 
#> 10 East Machias Gardner Lake         2003-04-27 
#> # … with 1,121 more rows
```

``` r
data(mn_iceout)

mn_iceout
#> # A tibble: 10,261 x 9
#>    source  date       comments  name    lat   lon id    sentinel_lake state
#>    <chr>   <date>     <chr>     <chr> <dbl> <dbl> <chr>         <int> <chr>
#>  1 MNDNR-… 1986-04-16 ""        Pine   46.2 -93.1 0100…             0 Minn…
#>  2 MNDNR-… 1986-04-16 Unknown   Pine   46.2 -93.1 0100…             0 Minn…
#>  3 MNDNR-… 1998-04-04 ""        Pine   46.2 -93.1 0100…             0 Minn…
#>  4 MNPCA   2014-04-28 No ice v… Pine   46.2 -93.1 0100…             0 Minn…
#>  5 MNPCA   2017-04-01 ""        Pine   46.2 -93.1 0100…             0 Minn…
#>  6 MNPCA   2018-05-01 ""        Pine   46.2 -93.1 0100…             0 Minn…
#>  7 MNPCA   1980-04-20 ""        Minn…  46.7 -93.3 0100…             0 Minn…
#>  8 MNPCA   1981-04-06 ""        Minn…  46.7 -93.3 0100…             0 Minn…
#>  9 MNPCA   1982-04-25 ""        Minn…  46.7 -93.3 0100…             0 Minn…
#> 10 MNDNR-… 1983-04-24 ""        Minn…  46.7 -93.3 0100…             0 Minn…
#> # … with 10,251 more rows
```
